APPROXIMATOR_SEQ_OPTIMIZED	1	0.000656	722.357
APPROXIMATOR_PAR_OPENMP	1	0.000457	722.371
APPROXIMATOR_PAR_OPENMP	2	0.000457	437.652
APPROXIMATOR_PAR_OPENMP	4	0.000457	272.41
APPROXIMATOR_PAR_OPENMP	6	0.000457	214.025

