APPROXIMATOR_SEQ_OPTIMIZED	1	0.001741	654.15
APPROXIMATOR_PAR_OPENMP	1	0.001716	657.856
APPROXIMATOR_PAR_OPENMP	2	0.001716	377.671
APPROXIMATOR_PAR_OPENMP	4	0.001716	231.653
APPROXIMATOR_PAR_OPENMP	6	0.001716	177.214

