APPROXIMATOR_SEQ_OPTIMIZED	1	0.001181	13145
APPROXIMATOR_PAR_OPENMP	1	0.000756	13191.1
APPROXIMATOR_PAR_OPENMP	2	0.000756	8733.04
APPROXIMATOR_PAR_OPENMP	4	0.000756	5201.45
APPROXIMATOR_PAR_OPENMP	6	0.000756	4088.01

