APPROXIMATOR_SEQ_OPTIMIZED	1	0.001185	127.35
APPROXIMATOR_PAR_OPENMP	1	0.00083	126.607
APPROXIMATOR_PAR_OPENMP	2	0.00083	76.5872
APPROXIMATOR_PAR_OPENMP	4	0.00083	45.4543
APPROXIMATOR_PAR_OPENMP	6	0.00083	34.0415

