APPROXIMATOR_SEQ_OPTIMIZED	1	0.000188	3007.67
APPROXIMATOR_PAR_OPENMP	1	9.4e-05	3008.89
APPROXIMATOR_PAR_OPENMP	2	9.4e-05	1952.54
APPROXIMATOR_PAR_OPENMP	4	9.4e-05	1212.12
APPROXIMATOR_PAR_OPENMP	6	9.4e-05	973.686

