APPROXIMATOR_SEQ_OPTIMIZED	1	6e-05	656.253
APPROXIMATOR_PAR_OPENMP	1	2.6e-05	656.363
APPROXIMATOR_PAR_OPENMP	2	2.6e-05	486.088
APPROXIMATOR_PAR_OPENMP	4	2.6e-05	306.888
APPROXIMATOR_PAR_OPENMP	6	2.6e-05	236.015

