APPROXIMATOR_SEQ_OPTIMIZED	1	0.000654	2773.04
APPROXIMATOR_PAR_OPENMP	1	0.000367	2777.92
APPROXIMATOR_PAR_OPENMP	2	0.000367	1658.17
APPROXIMATOR_PAR_OPENMP	4	0.000367	1016.03
APPROXIMATOR_PAR_OPENMP	6	0.000367	811.209

