APPROXIMATOR_SEQ_OPTIMIZED	1	5.9e-05	183.543
APPROXIMATOR_PAR_OPENMP	1	2.6e-05	183.704
APPROXIMATOR_PAR_OPENMP	2	2.6e-05	128.566
APPROXIMATOR_PAR_OPENMP	4	2.6e-05	79.5767
APPROXIMATOR_PAR_OPENMP	6	2.6e-05	57.357

