APPROXIMATOR_SEQ_OPTIMIZED	1	0.001714	2972.24
APPROXIMATOR_PAR_OPENMP	1	0.001738	2977.08
APPROXIMATOR_PAR_OPENMP	2	0.001738	1701.43
APPROXIMATOR_PAR_OPENMP	4	0.001738	1009.89
APPROXIMATOR_PAR_OPENMP	6	0.001738	784.541

