nTips nStates iParam nIter meanTime loglik error
"32" "16" "0" "50" "0.00136346" "-122.2325" ""
"32" "16" "1" "50" "0.00131934" "-146.9921" ""
"32" "16" "2" "50" "0.00155794" "-139.0659" ""
"32" "64" "0" "50" "0.00810316" "-198.0585" ""
"32" "64" "1" "50" "0.00703034" "-162.3317" ""
"32" "64" "2" "50" "0.00635396" "-174.3255" ""
"32" "128" "0" "50" "0.01881426" "-150.3974" ""
"32" "128" "1" "50" "0.01002656" "-146.1969" ""
"32" "128" "2" "50" "0.01335324" "-161.3825" ""
"32" "256" "0" "50" "0.04332118" "-179.0072" ""
"32" "256" "1" "50" "0.0368452" "-179.585" ""
"32" "256" "2" "50" "0.03812798" "-163.2176" ""
"32" "512" "0" "50" "0.223351" "-197.9503" ""
"32" "512" "1" "50" "0.2107196" "-211.8917" ""
"32" "512" "2" "50" "0.144776" "-163.8447" ""
"32" "1024" "0" "50" "0.9139375" "-203.2967" ""
"32" "1024" "1" "50" "0.7082529" "-174.0375" ""
"32" "1024" "2" "50" "0.7769097" "-175.9193" ""
"128" "16" "0" "50" "0.00599168" "-798.6936" ""
"128" "16" "1" "50" "0.00623522" "-821.497" ""
"128" "16" "2" "50" "0.00493576" "-745.6369" ""
"128" "64" "0" "50" "0.0256463" "-841.4605" ""
"128" "64" "1" "50" "0.0253135" "-825.4991" ""
"128" "64" "2" "50" "0.02531074" "-762.6974" ""
"128" "128" "0" "50" "0.06149424" "-904.4003" ""
"128" "128" "1" "50" "0.06551954" "-846.1941" ""
"128" "128" "2" "50" "0.06162806" "-813.8364" ""
"128" "256" "0" "50" "0.2033832" "-927.2617" ""
"128" "256" "1" "50" "0.198879" "-921.4294" ""
"128" "256" "2" "50" "0.1845295" "-842.0053" ""
"128" "512" "0" "50" "0.7429695" "-939.6896" ""
"128" "512" "1" "50" "0.664779" "-921.9864" ""
"128" "512" "2" "50" "0.6793496" "-852.0987" ""
"128" "1024" "0" "50" "2.753091" "-880.4994" ""
"128" "1024" "1" "50" "2.601121" "-894.9267" ""
"128" "1024" "2" "50" "2.607814" "-773.9406" ""
"256" "16" "0" "50" "0.01068586" "-1598.947" ""
"256" "16" "1" "50" "0.01027752" "-1717.725" ""
"256" "16" "2" "50" "0.00868826" "-1606.509" ""
"256" "64" "0" "50" "0.0613469" "-1752.344" ""
"256" "64" "1" "50" "0.0579366" "-1749.994" ""
"256" "64" "2" "50" "0.0455789" "-1644.63" ""
"256" "128" "0" "50" "0.188113" "-1959.747" ""
"256" "128" "1" "50" "0.2332346" "-1989.276" ""
"256" "128" "2" "50" "0.1878413" "-1783.744" ""
"256" "256" "0" "50" "0.5878294" "-1964.907" ""
"256" "256" "1" "50" "0.5874015" "-1893.593" ""
"256" "256" "2" "50" "0.5829478" "-1852.255" ""
"256" "512" "0" "50" "1.975432" "-1978.292" ""
"256" "512" "1" "50" "1.941826" "-2003.208" ""
"256" "512" "2" "50" "1.924859" "-1742.491" ""
"256" "1024" "0" "50" "7.442708" "-1921.463" ""
"256" "1024" "1" "50" "7.29623" "-1973.027" ""
"256" "1024" "2" "50" "7.128975" "-1800.45" ""
"512" "16" "0" "50" "0.02237922" "-3680.179" ""
"512" "16" "1" "50" "0.01923008" "-3706.616" ""
"512" "16" "2" "50" "0.01750806" "-3532.852" ""
"512" "64" "0" "50" "0.1277051" "-3805.484" ""
"512" "64" "1" "50" "0.1146932" "-4165.045" ""
"512" "64" "2" "50" "0.09410064" "-3719.715" ""
"512" "128" "0" "50" "0.5628736" "-4160.914" ""
"512" "128" "1" "50" "0.4603371" "-4158.248" ""
"512" "128" "2" "50" "0.4001518" "-3735.641" ""
"512" "256" "0" "50" "2.369106" "-4280.143" ""
"512" "256" "1" "50" "2.024393" "-4329.8" ""
"512" "256" "2" "50" "1.732797" "-3960.309" ""
"512" "512" "0" "50" "6.665125" "-4296.488" ""
"512" "512" "1" "50" "6.672931" "-4321.417" ""
"512" "512" "2" "50" "6.666314" "-3941.804" ""
"512" "1024" "0" "50" "23.42888" "-4318.16" ""
"512" "1024" "1" "50" "23.31295" "-4355.381" ""
"512" "1024" "2" "50" "23.39961" "-3891.201" ""
"1024" "16" "0" "50" "0.0434968" "-8026.949" ""
"1024" "16" "1" "50" "0.03961132" "-8300.052" ""
"1024" "16" "2" "50" "0.03329166" "-7605.132" ""
"1024" "64" "0" "50" "0.2677598" "-9010.519" ""
"1024" "64" "1" "50" "0.2189512" "-8758.471" ""
"1024" "64" "2" "50" "0.18282" "-7787.043" ""
"1024" "128" "0" "50" "1.047552" "-8928.59" ""
"1024" "128" "1" "50" "0.90527" "-8913.027" ""
"1024" "128" "2" "50" "0.7348621" "-8097.655" ""
"1024" "256" "0" "50" "4.746229" "-9430.349" ""
"1024" "256" "1" "50" "4.025166" "-9136.856" ""
"1024" "256" "2" "50" "3.403785" "-8543.316" ""
"1024" "512" "0" "50" "27.75745" "-9423.358" ""
"1024" "512" "1" "50" "23.01981" "-9027.216" ""
"1024" "512" "2" "50" "19.16581" "-8413.272" ""
