nTips nStates maxLambda maxMu nIter meanTime loglik error
"16" "2" "0.5" "0." "50" "0.00036812" "-2.4580687078011074220e+01" ""
"16" "2" "1.0" "0.5" "50" "0.0002653" "-1.5835276639981239910e+01" ""
"16" "2" "2.0" "1.0" "50" "0.00033316" "-4.0606812720134666250e+00" ""
"16" "2" "5." "2.5" "50" "0.00036874" "6.6198964629321066511e+00" ""
"16" "2" "10." "5." "50" "0.00031938" "2.1317821719351591980e+01" ""
"16" "4" "0.5" "0." "50" "0.00052686" "-2.3927289478281938528e+01" ""
"16" "4" "1.0" "0.5" "50" "0.0004102" "-2.2960398591094921983e+01" ""
"16" "4" "2.0" "1.0" "50" "0.0003693" "-9.3995790814700903582e+00" ""
"16" "4" "5." "2.5" "50" "0.00027408" "5.6238832120052979491e+00" ""
"16" "4" "10." "5." "50" "0.0003462" "1.8115710664479536263e+01" ""
"16" "8" "0.5" "0." "50" "0.00051824" "-2.9225129726242819572e+01" ""
"16" "8" "1.0" "0.5" "50" "0.00039982" "-2.0198362428339187602e+01" ""
"16" "8" "2.0" "1.0" "50" "0.00030304" "-4.5346429367336726912e+00" ""
"16" "8" "5." "2.5" "50" "0.00032744" "5.6963029116764190007e+00" ""
"16" "8" "10." "5." "50" "0.0003247" "1.7502277257877253192e+01" ""
"16" "16" "0.5" "0." "50" "0.00088472" "-3.1606362758754375619e+01" ""
"16" "16" "1.0" "0.5" "50" "0.00044412" "-1.5185754460306490898e+01" ""
"16" "16" "2.0" "1.0" "50" "0.00051996" "-8.2351558858771394256e+00" ""
"16" "16" "5." "2.5" "50" "0.00046366" "7.5819405774183969982e+00" ""
"16" "16" "10." "5." "50" "0.000389" "1.7880939645050847986e+01" ""
"16" "32" "0.5" "0." "50" "0.00159858" "-3.1478260300039032415e+01" ""
"16" "32" "1.0" "0.5" "50" "0.00069688" "-1.7093450735838157328e+01" ""
"16" "32" "2.0" "1.0" "50" "0.00091874" "-1.1729713346457714351e+01" ""
"16" "32" "5." "2.5" "50" "0.00079754" "1.7674854687966254918e+00" ""
"16" "32" "10." "5." "50" "0.00062" "1.5528249112341649507e+01" ""
"16" "64" "0.5" "0." "50" "0.00306136" "-2.7723539047809385494e+01" ""
"16" "64" "1.0" "0.5" "50" "0.00230832" "-2.1158407061199248744e+01" ""
"16" "64" "2.0" "1.0" "50" "0.00157116" "-7.1788098289085082726e+00" ""
"16" "64" "5." "2.5" "50" "0.0009524" "1.0067021177913161978e+01" ""
"16" "64" "10." "5." "50" "0.00103504" "1.7495301422905480848e+01" ""
"16" "128" "0.5" "0." "50" "0.00740574" "-2.7184063152491365400e+01" ""
"16" "128" "1.0" "0.5" "50" "0.00366962" "-1.4740911803530686086e+01" ""
"16" "128" "2.0" "1.0" "50" "0.00453842" "-9.7653657559425699475e+00" ""
"16" "128" "5." "2.5" "50" "0.00347262" "4.6933251327441514178e+00" ""
"16" "128" "10." "5." "50" "0.00207536" "1.5018187127334591935e+01" ""
"16" "256" "0.5" "0." "50" "0.0239659" "-2.8254612987218681752e+01" ""
"16" "256" "1.0" "0.5" "50" "0.0139943" "-1.5549586776228727203e+01" ""
"16" "256" "2.0" "1.0" "50" "0.0108834" "-5.7093452893714182750e+00" ""
"16" "256" "5." "2.5" "50" "0.00922846" "5.2567691365635749179e+00" ""
"16" "256" "10." "5." "50" "0.00886596" "1.1297590167628964508e+01" ""
"16" "512" "0.5" "0." "50" "0.0898192" "-2.5884265329972823366e+01" ""
"16" "512" "1.0" "0.5" "50" "0.0832531" "-1.8517373209051939398e+01" ""
"16" "512" "2.0" "1.0" "50" "0.0701336" "-1.0443679354328317288e+01" ""
"16" "512" "5." "2.5" "50" "0.060828" "1.5539517840651828617e+00" ""
"16" "512" "10." "5." "50" "0.0316602" "1.6314760710326034143e+01" ""
"32" "2" "0.5" "0." "50" "0.00074218" "-5.3464106557503157546e+01" ""
"32" "2" "1.0" "0.5" "50" "0.00069418" "-3.5221430453743536759e+01" ""
"32" "2" "2.0" "1.0" "50" "0.00072984" "-1.0788446120329023614e+01" ""
"32" "2" "5." "2.5" "50" "0.00084134" "1.9674695736298374982e+01" ""
"32" "2" "10." "5." "50" "0.00079468" "4.3415254713823060229e+01" ""
"32" "4" "0.5" "0." "50" "0.00081754" "-5.6898443185875017036e+01" ""
"32" "4" "1.0" "0.5" "50" "0.0008752" "-3.3700499089251920282e+01" ""
"32" "4" "2.0" "1.0" "50" "0.00076946" "-1.5336141468822221512e+01" ""
"32" "4" "5." "2.5" "50" "0.00082758" "1.8653716099603450118e+01" ""
"32" "4" "10." "5." "50" "0.0008578" "3.8058536201930230902e+01" ""
"32" "8" "0.5" "0." "50" "0.00094964" "-5.0435693719594546280e+01" ""
"32" "8" "1.0" "0.5" "50" "0.00089614" "-3.6892630227130112530e+01" ""
"32" "8" "2.0" "1.0" "50" "0.00082874" "-1.3592109318036728283e+01" ""
"32" "8" "5." "2.5" "50" "0.00088016" "1.5718887832460261222e+01" ""
"32" "8" "10." "5." "50" "0.0008621" "3.3565117781128677166e+01" ""
"32" "16" "0.5" "0." "50" "0.00130844" "-5.5713541987373140785e+01" ""
"32" "16" "1.0" "0.5" "50" "0.00102714" "-3.4386493090364133707e+01" ""
"32" "16" "2.0" "1.0" "50" "0.00112428" "-1.1057515321632587657e+01" ""
"32" "16" "5." "2.5" "50" "0.00098546" "1.3622188796057429272e+01" ""
"32" "16" "10." "5." "50" "0.0011172" "3.8035384828282126080e+01" ""
"32" "32" "0.5" "0." "50" "0.00299258" "-6.1296898888315723752e+01" ""
"32" "32" "1.0" "0.5" "50" "0.00154876" "-3.7611054916704482309e+01" ""
"32" "32" "2.0" "1.0" "50" "0.0014068" "-1.5710063419354362679e+01" ""
"32" "32" "5." "2.5" "50" "0.00128758" "1.7188372805645318664e+01" ""
"32" "32" "10." "5." "50" "0.00124122" "3.7344832611403631972e+01" ""
"32" "64" "0.5" "0." "50" "0.00498058" "-5.3140452673241405535e+01" ""
"32" "64" "1.0" "0.5" "50" "0.0037973" "-3.8418328993161964036e+01" ""
"32" "64" "2.0" "1.0" "50" "0.00240846" "-1.3856914751869062741e+01" ""
"32" "64" "5." "2.5" "50" "0.00232618" "1.4230916511574719152e+01" ""
"32" "64" "10." "5." "50" "0.00207326" "3.7160684864902016500e+01" ""
"32" "128" "0.5" "0." "50" "0.0182922" "-6.2864748951615560202e+01" ""
"32" "128" "1.0" "0.5" "50" "0.00930964" "-3.8218288320559295812e+01" ""
"32" "128" "2.0" "1.0" "50" "0.00712976" "-1.5837769838666293509e+01" ""
"32" "128" "5." "2.5" "50" "0.00508892" "1.7516055610776891882e+01" ""
"32" "128" "10." "5." "50" "0.00490606" "3.1502842810416957775e+01" ""
"32" "256" "0.5" "0." "50" "0.0398684" "-5.2748457768285661018e+01" ""
"32" "256" "1.0" "0.5" "50" "0.0348458" "-3.9932301455435087689e+01" ""
"32" "256" "2.0" "1.0" "50" "0.0272932" "-2.4115969742553048150e+01" ""
"32" "256" "5." "2.5" "50" "0.0168566" "1.3052706719211748521e+01" ""
"32" "256" "10." "5." "50" "0.0106023" "3.6299866293720796762e+01" ""
"32" "512" "0.5" "0." "50" "0.210937" "-5.6348421236748329477e+01" ""
"32" "512" "1.0" "0.5" "50" "0.169296" "-4.3106076151997562818e+01" ""
"32" "512" "2.0" "1.0" "50" "0.132099" "-1.9446933980273389153e+01" ""
"32" "512" "5." "2.5" "50" "0.0910715" "1.3733827223526393624e+01" ""
"32" "512" "10." "5." "50" "0.0680116" "3.3206843869361435395e+01" ""
"64" "2" "0.5" "0." "50" "0.00173258" "-1.1828649209396839126e+02" ""
"64" "2" "1.0" "0.5" "50" "0.00174344" "-6.7570669165284243718e+01" ""
"64" "2" "2.0" "1.0" "50" "0.00166448" "-2.5032924521889384550e+01" ""
"64" "2" "5." "2.5" "50" "0.0017439" "3.7148834329315562286e+01" ""
"64" "2" "10." "5." "50" "0.00190766" "7.5514396684418727546e+01" ""
"64" "4" "0.5" "0." "50" "0.0016869" "-1.0415760278900032176e+02" ""
"64" "4" "1.0" "0.5" "50" "0.00172718" "-7.1541415158320106116e+01" ""
"64" "4" "2.0" "1.0" "50" "0.00168958" "-1.8776721637652158847e+01" ""
"64" "4" "5." "2.5" "50" "0.00180568" "2.4766055531159601344e+01" ""
"64" "4" "10." "5." "50" "0.00176938" "7.2282083291015254645e+01" ""
"64" "8" "0.5" "0." "50" "0.00199658" "-9.9779425471092523026e+01" ""
"64" "8" "1.0" "0.5" "50" "0.00193716" "-7.9864064679455353257e+01" ""
"64" "8" "2.0" "1.0" "50" "0.00210072" "-3.0124280681588977870e+01" ""
"64" "8" "5." "2.5" "50" "0.00198946" "2.6629416199050936598e+01" ""
"64" "8" "10." "5." "50" "0.00200048" "8.2332428384154496825e+01" ""
"64" "16" "0.5" "0." "50" "0.00310582" "-1.2042865499830901399e+02" ""
"64" "16" "1.0" "0.5" "50" "0.00234856" "-7.8333805638654354198e+01" ""
"64" "16" "2.0" "1.0" "50" "0.00227016" "-3.4554148329919804894e+01" ""
"64" "16" "5." "2.5" "50" "0.00226612" "2.0443568752950966427e+01" ""
"64" "16" "10." "5." "50" "0.00240574" "7.7308876159442405651e+01" ""
"64" "32" "0.5" "0." "50" "0.00431556" "-1.1895214169662777692e+02" ""
"64" "32" "1.0" "0.5" "50" "0.00332042" "-7.9108212909249459699e+01" ""
"64" "32" "2.0" "1.0" "50" "0.00272898" "-3.6077586708807061200e+01" ""
"64" "32" "5." "2.5" "50" "0.00299112" "3.6579922765391117423e+01" ""
"64" "32" "10." "5." "50" "0.00270872" "7.2164669603459529412e+01" ""
"64" "64" "0.5" "0." "50" "0.0107525" "-1.2111052222147104374e+02" ""
"64" "64" "1.0" "0.5" "50" "0.00589618" "-7.2781343483877023459e+01" ""
"64" "64" "2.0" "1.0" "50" "0.00454752" "-2.9011258183898437579e+01" ""
"64" "64" "5." "2.5" "50" "0.00504056" "3.1360518076781104924e+01" ""
"64" "64" "10." "5." "50" "0.0040845" "6.1035914543859497883e+01" ""
"64" "128" "0.5" "0." "50" "0.0279566" "-1.1884355274613373865e+02" ""
"64" "128" "1.0" "0.5" "50" "0.0185852" "-7.5779445706276575834e+01" ""
"64" "128" "2.0" "1.0" "50" "0.015394" "-4.0537764830075637690e+01" ""
"64" "128" "5." "2.5" "50" "0.00992546" "2.9602386728072644928e+01" ""
"64" "128" "10." "5." "50" "0.0085975" "7.1380054949503076500e+01" ""
"64" "256" "0.5" "0." "50" "0.0973611" "-1.1801068867989567934e+02" ""
"64" "256" "1.0" "0.5" "50" "0.0647849" "-7.9584795697341590426e+01" ""
"64" "256" "2.0" "1.0" "50" "0.046886" "-3.6959134316270933596e+01" ""
"64" "256" "5." "2.5" "50" "0.0351377" "1.7792272716705074487e+01" ""
"64" "256" "10." "5." "50" "0.0287615" "6.4784235300044045403e+01" ""
"64" "512" "0.5" "0." "50" "0.429513" "-1.1127477188386917817e+02" ""
"64" "512" "1.0" "0.5" "50" "0.313715" "-7.4711326353104709597e+01" ""
"64" "512" "2.0" "1.0" "50" "0.259001" "-3.5650749555946418923e+01" ""
"64" "512" "5." "2.5" "50" "0.192723" "1.9224114728098271598e+01" ""
"64" "512" "10." "5." "50" "0.113654" "6.7452027343184028041e+01" ""
"128" "2" "0.5" "0." "50" "0.00422722" "-2.3225070900591961731e+02" ""
"128" "2" "1.0" "0.5" "50" "0.00396386" "-1.2521833429915677982e+02" ""
"128" "2" "2.0" "1.0" "50" "0.0039837" "-5.2603676546510875767e+01" ""
"128" "2" "5." "2.5" "50" "0.00438948" "7.7064614659920124495e+01" ""
"128" "2" "10." "5." "50" "0.00414958" "1.6523778737920503090e+02" ""
"128" "4" "0.5" "0." "50" "0.00412034" "-2.0643730109429117192e+02" ""
"128" "4" "1.0" "0.5" "50" "0.0039794" "-1.3998362138334260862e+02" ""
"128" "4" "2.0" "1.0" "50" "0.00417266" "-5.3941085876424573087e+01" ""
"128" "4" "5." "2.5" "50" "0.00433106" "5.3501902909228469696e+01" ""
"128" "4" "10." "5." "50" "0.00436632" "1.6150393059735768020e+02" ""
"128" "8" "0.5" "0." "50" "0.00444412" "-2.3209965854199600699e+02" ""
"128" "8" "1.0" "0.5" "50" "0.00449476" "-1.5143150361404849491e+02" ""
"128" "8" "2.0" "1.0" "50" "0.0043626" "-6.2558193163242918899e+01" ""
"128" "8" "5." "2.5" "50" "0.00467918" "7.1353826391529509010e+01" ""
"128" "8" "10." "5." "50" "0.00456622" "1.6513363295224405647e+02" ""
"128" "16" "0.5" "0." "50" "0.00559522" "-2.2960602738610350571e+02" ""
"128" "16" "1.0" "0.5" "50" "0.00500818" "-1.4943719670883700701e+02" ""
"128" "16" "2.0" "1.0" "50" "0.00488602" "-6.1474613548043656408e+01" ""
"128" "16" "5." "2.5" "50" "0.00502666" "5.7526794984184142834e+01" ""
"128" "16" "10." "5." "50" "0.00518454" "1.5288132571270244853e+02" ""
"128" "32" "0.5" "0." "50" "0.00804504" "-2.2177058628925567518e+02" ""
"128" "32" "1.0" "0.5" "50" "0.00778504" "-1.6471337779448671768e+02" ""
"128" "32" "2.0" "1.0" "50" "0.00641058" "-6.4902129225761868270e+01" ""
"128" "32" "5." "2.5" "50" "0.00632474" "6.2106211512342532899e+01" ""
"128" "32" "10." "5." "50" "0.00612692" "1.6086662182651861031e+02" ""
"128" "64" "0.5" "0." "50" "0.0163898" "-2.3442899859104161919e+02" ""
"128" "64" "1.0" "0.5" "50" "0.0125165" "-1.6102867355815413930e+02" ""
"128" "64" "2.0" "1.0" "50" "0.0106588" "-6.6355803334959148287e+01" ""
"128" "64" "5." "2.5" "50" "0.0104052" "5.6856423042085651787e+01" ""
"128" "64" "10." "5." "50" "0.00985536" "1.5845809140534888115e+02" ""
"128" "128" "0.5" "0." "50" "0.0561367" "-2.3473306338345747690e+02" ""
"128" "128" "1.0" "0.5" "50" "0.0360302" "-1.4983357299876541902e+02" ""
"128" "128" "2.0" "1.0" "50" "0.0262754" "-5.3482343263958796342e+01" ""
"128" "128" "5." "2.5" "50" "0.0248311" "5.3273906134163226511e+01" ""
"128" "128" "10." "5." "50" "0.0228184" "1.4504650895728570958e+02" ""
"128" "256" "0.5" "0." "50" "0.203027" "-2.2788428943127249227e+02" ""
"128" "256" "1.0" "0.5" "50" "0.141156" "-1.6086728304026027558e+02" ""
"128" "256" "2.0" "1.0" "50" "0.103591" "-7.2776463484816915184e+01" ""
"128" "256" "5." "2.5" "50" "0.0873364" "4.7933569408818271995e+01" ""
"128" "256" "10." "5." "50" "0.0729908" "1.2771529805516401268e+02" ""
"128" "512" "0.5" "0." "50" "1.00528" "-2.2647358491188512630e+02" ""
"128" "512" "1.0" "0.5" "50" "0.750252" "-1.6850791332489225738e+02" ""
"128" "512" "2.0" "1.0" "50" "0.498249" "-6.9642503537055063134e+01" ""
"128" "512" "5." "2.5" "50" "0.373176" "4.3739115249361553595e+01" ""
"128" "512" "10." "5." "50" "0.268653" "1.3087037409343395211e+02" ""
"256" "2" "0.5" "0." "50" "0.00981998" "-4.8126414790494703766e+02" ""
"256" "2" "1.0" "0.5" "50" "0.00970878" "-2.7898406890908177047e+02" ""
"256" "2" "2.0" "1.0" "50" "0.00936548" "-1.1010115791655935880e+02" ""
"256" "2" "5." "2.5" "50" "0.00990848" "1.5259906829744997481e+02" ""
"256" "2" "10." "5." "50" "0.0094872" "3.3880311820428323699e+02" ""
"256" "4" "0.5" "0." "50" "0.00962466" "-4.5555023120572985817e+02" ""
"256" "4" "1.0" "0.5" "50" "0.0095988" "-2.7070967967479339222e+02" ""
"256" "4" "2.0" "1.0" "50" "0.0097095" "-9.2466457557520115529e+01" ""
"256" "4" "5." "2.5" "50" "0.00920692" "1.2366851651466606654e+02" ""
"256" "4" "10." "5." "50" "0.00923776" "3.0172614313549826193e+02" ""
"256" "8" "0.5" "0." "50" "0.0105591" "-4.4087835964339672046e+02" ""
"256" "8" "1.0" "0.5" "50" "0.0107285" "-3.0409822301516425114e+02" ""
"256" "8" "2.0" "1.0" "50" "0.0097803" "-1.1635796665423004015e+02" ""
"256" "8" "5." "2.5" "50" "0.0105741" "1.3515378001993258295e+02" ""
"256" "8" "10." "5." "50" "0.0106945" "3.0874656814879034528e+02" ""
"256" "16" "0.5" "0." "50" "0.0130794" "-4.6948540341887763816e+02" ""
"256" "16" "1.0" "0.5" "50" "0.0123305" "-3.0132771309644908797e+02" ""
"256" "16" "2.0" "1.0" "50" "0.0119553" "-1.0647047132162865068e+02" ""
"256" "16" "5." "2.5" "50" "0.0121456" "1.1990214467749220262e+02" ""
"256" "16" "10." "5." "50" "0.0121943" "3.2295938995209712630e+02" ""
"256" "32" "0.5" "0." "50" "0.0187228" "-4.6913123768952198134e+02" ""
"256" "32" "1.0" "0.5" "50" "0.0169333" "-2.9881846318961771658e+02" ""
"256" "32" "2.0" "1.0" "50" "0.0168291" "-1.3305004739359588939e+02" ""
"256" "32" "5." "2.5" "50" "0.0161301" "1.3532760557122841760e+02" ""
"256" "32" "10." "5." "50" "0.0163401" "3.1929536908292737962e+02" ""
"256" "64" "0.5" "0." "50" "0.037198" "-4.7098999466664997726e+02" ""
"256" "64" "1.0" "0.5" "50" "0.031232" "-3.1482859203594932751e+02" ""
"256" "64" "2.0" "1.0" "50" "0.0294375" "-1.4673027581122019569e+02" ""
"256" "64" "5." "2.5" "50" "0.0289331" "1.0472154410342187703e+02" ""
"256" "64" "10." "5." "50" "0.0288649" "3.1525435785525996835e+02" ""
"256" "128" "0.5" "0." "50" "0.122267" "-4.6940891383758673783e+02" ""
"256" "128" "1.0" "0.5" "50" "0.090074" "-3.1660230403895815243e+02" ""
"256" "128" "2.0" "1.0" "50" "0.0796195" "-1.3051137135874776618e+02" ""
"256" "128" "5." "2.5" "50" "0.0765327" "1.1255155337353114930e+02" ""
"256" "128" "10." "5." "50" "0.0785041" "2.9936077413575338824e+02" ""
"256" "256" "0.5" "0." "50" "0.509503" "-4.7751421589070787377e+02" ""
"256" "256" "1.0" "0.5" "50" "0.31755" "-3.1901603697180115660e+02" ""
"256" "256" "2.0" "1.0" "50" "0.257887" "-1.4820536923824056430e+02" ""
"256" "256" "5." "2.5" "50" "0.224969" "9.7097536262836058540e+01" ""
"256" "256" "10." "5." "50" "0.21365" "2.7030053205342352385e+02" ""
"256" "512" "0.5" "0." "50" "2.44494" "-4.6602468408001874423e+02" ""
"256" "512" "1.0" "0.5" "50" "1.81176" "-3.3095860738316844163e+02" ""
"256" "512" "2.0" "1.0" "50" "1.24815" "-1.5055265738683914378e+02" ""
"256" "512" "5." "2.5" "50" "0.960753" "9.8101693562594917353e+01" ""
"256" "512" "10." "5." "50" "0.816399" "2.8410802467252864290e+02" ""
"512" "2" "0.5" "0." "50" "0.022808" "-8.8285697576482755267e+02" ""
"512" "2" "1.0" "0.5" "50" "0.0234784" "-5.6681497668608744789e+02" ""
"512" "2" "2.0" "1.0" "50" "0.0232142" "-1.5309862891660762330e+02" ""
"512" "2" "5." "2.5" "50" "0.0226818" "2.7061028573268094988e+02" ""
"512" "2" "10." "5." "50" "0.0225605" "6.7329546770360684604e+02" ""
"512" "4" "0.5" "0." "50" "0.0229256" "-8.9821390368553352346e+02" ""
"512" "4" "1.0" "0.5" "50" "0.021489" "-5.4147875405266393045e+02" ""
"512" "4" "2.0" "1.0" "50" "0.0223185" "-1.8438138700017233873e+02" ""
"512" "4" "5." "2.5" "50" "0.023269" "2.6917908937269919534e+02" ""
"512" "4" "10." "5." "50" "0.0223002" "6.3821435216722841233e+02" ""
"512" "8" "0.5" "0." "50" "0.0254365" "-9.2042180771516268578e+02" ""
"512" "8" "1.0" "0.5" "50" "0.0266212" "-6.0056210911061009483e+02" ""
"512" "8" "2.0" "1.0" "50" "0.0256072" "-2.0978114388793670742e+02" ""
"512" "8" "5." "2.5" "50" "0.0247076" "2.6991839381327878300e+02" ""
"512" "8" "10." "5." "50" "0.0262137" "6.5741908144621470456e+02" ""
"512" "16" "0.5" "0." "50" "0.0337843" "-9.2920196425720109801e+02" ""
"512" "16" "1.0" "0.5" "50" "0.0329152" "-6.0087900733818662502e+02" ""
"512" "16" "2.0" "1.0" "50" "0.0324723" "-2.2029953886316678791e+02" ""
"512" "16" "5." "2.5" "50" "0.0313516" "2.4465019305107074388e+02" ""
"512" "16" "10." "5." "50" "0.0320658" "6.3548067969813348554e+02" ""
"512" "32" "0.5" "0." "50" "0.0507292" "-9.1658867025086885860e+02" ""
"512" "32" "1.0" "0.5" "50" "0.048375" "-6.3329124179030009145e+02" ""
"512" "32" "2.0" "1.0" "50" "0.047109" "-2.6863024658220518859e+02" ""
"512" "32" "5." "2.5" "50" "0.0487406" "2.5053641620908570076e+02" ""
"512" "32" "10." "5." "50" "0.0471919" "6.2036714005092608204e+02" ""
"512" "64" "0.5" "0." "50" "0.106639" "-9.5463988389962867132e+02" ""
"512" "64" "1.0" "0.5" "50" "0.100526" "-6.1989300710928102944e+02" ""
"512" "64" "2.0" "1.0" "50" "0.0960332" "-3.0218347158419857124e+02" ""
"512" "64" "5." "2.5" "50" "0.0955548" "2.5323453276188789118e+02" ""
"512" "64" "10." "5." "50" "0.0968514" "5.7435457622184731008e+02" ""
"512" "128" "0.5" "0." "50" "0.310953" "-9.3832962453092250144e+02" ""
"512" "128" "1.0" "0.5" "50" "0.28743" "-6.5177017240573047729e+02" ""
"512" "128" "2.0" "1.0" "50" "0.274265" "-3.0092766209385314369e+02" ""
"512" "128" "5." "2.5" "50" "0.268938" "2.0122733307044853746e+02" ""
"512" "128" "10." "5." "50" "0.273352" "6.0276989073899255800e+02" ""
"512" "256" "0.5" "0." "50" "1.26083" "-9.6506861905380208100e+02" ""
"512" "256" "1.0" "0.5" "50" "0.956655" "-6.4962708589490603117e+02" ""
"512" "256" "2.0" "1.0" "50" "0.835522" "-2.6700686436526086709e+02" ""
"512" "256" "5." "2.5" "50" "0.808027" "2.0345186716626250245e+02" ""
"512" "256" "10." "5." "50" "0.786103" "5.5748395379982036957e+02" ""
"512" "512" "0.5" "0." "50" "7.0427" "-9.5748474529504335351e+02" ""
"512" "512" "1.0" "0.5" "50" "4.93367" "-6.4275903305255280884e+02" ""
"512" "512" "2.0" "1.0" "50" "3.68759" "-2.7702446546854162079e+02" ""
"512" "512" "5." "2.5" "50" "3.39403" "1.9773205329029570976e+02" ""
"512" "512" "10." "5." "50" "3.25643" "5.4192499020488878614e+02" ""
"1024" "2" "0.5" "0." "50" "0.0614115" "-1.7724794326742999147e+03" ""
"1024" "2" "1.0" "0.5" "50" "0.0588073" "-1.0797490555792069244e+03" ""
"1024" "2" "2.0" "1.0" "50" "0.05926" "-3.6325726384954617743e+02" ""
"1024" "2" "5." "2.5" "50" "0.0604097" "5.6269767077738436001e+02" ""
"1024" "2" "10." "5." "50" "0.0585541" "1.3237818619736992787e+03" ""
"1024" "4" "0.5" "0." "50" "0.0585039" "-1.7904550666500581428e+03" ""
"1024" "4" "1.0" "0.5" "50" "0.0570858" "-1.1887617612746494160e+03" ""
"1024" "4" "2.0" "1.0" "50" "0.0575348" "-3.7093867918159412511e+02" ""
"1024" "4" "5." "2.5" "50" "0.059788" "5.3392604976524728499e+02" ""
"1024" "4" "10." "5." "50" "0.0566238" "1.2986279124986376701e+03" ""
"1024" "8" "0.5" "0." "50" "0.069681" "-1.8376867853721380470e+03" ""
"1024" "8" "1.0" "0.5" "50" "0.0683397" "-1.1974619558102026531e+03" ""
"1024" "8" "2.0" "1.0" "50" "0.0694955" "-4.4643669885543869214e+02" ""
"1024" "8" "5." "2.5" "50" "0.0711971" "5.4034893740465406609e+02" ""
"1024" "8" "10." "5." "50" "0.0690208" "1.3330997483688470311e+03" ""
"1024" "16" "0.5" "0." "50" "0.0976503" "-1.8295605342624996865e+03" ""
"1024" "16" "1.0" "0.5" "50" "0.0962407" "-1.1900222302785866759e+03" ""
"1024" "16" "2.0" "1.0" "50" "0.0935203" "-4.8219542572516780865e+02" ""
"1024" "16" "5." "2.5" "50" "0.0926805" "5.2399749487828353267e+02" ""
"1024" "16" "10." "5." "50" "0.0925792" "1.2577904269808541358e+03" ""
"1024" "32" "0.5" "0." "50" "0.159895" "-1.8658781577686920627e+03" ""
"1024" "32" "1.0" "0.5" "50" "0.160735" "-1.2272638287050892814e+03" ""
"1024" "32" "2.0" "1.0" "50" "0.157942" "-5.1231055679680434878e+02" ""
"1024" "32" "5." "2.5" "50" "0.158212" "4.9252251147373129925e+02" ""
"1024" "32" "10." "5." "50" "0.157048" "1.2500516795528835701e+03" ""
"1024" "64" "0.5" "0." "50" "0.368834" "-1.8935523968826457804e+03" ""
"1024" "64" "1.0" "0.5" "50" "0.363249" "-1.2697177847516511520e+03" ""
"1024" "64" "2.0" "1.0" "50" "0.347397" "-5.4021329617930348377e+02" ""
"1024" "64" "5." "2.5" "50" "0.360979" "4.7742220801634198324e+02" ""
"1024" "64" "10." "5." "50" "0.358894" "1.1455450424445195949e+03" ""
"1024" "128" "0.5" "0." "50" "1.1027" "-1.8684823957730109214e+03" ""
"1024" "128" "1.0" "0.5" "50" "1.03191" "-1.2551057474928136344e+03" ""
"1024" "128" "2.0" "1.0" "50" "1.03711" "-5.5449616973723607316e+02" ""
"1024" "128" "5." "2.5" "50" "1.02893" "3.9168968642469661745e+02" ""
"1024" "128" "10." "5." "50" "1.0286" "1.1578070180228355639e+03" ""
"1024" "256" "0.5" "0." "50" "4.443" "-1.8825230280774842413e+03" ""
"1024" "256" "1.0" "0.5" "50" "4.43644" "-1.2249888279587744364e+03" ""
"1024" "256" "2.0" "1.0" "50" "4.57259" "-5.5686020617549104372e+02" ""
"1024" "256" "5." "2.5" "50" "4.11722" "3.7879702179073177604e+02" ""
"1024" "256" "10." "5." "50" "4.04936" "1.1385845846957968206e+03" ""
"1024" "512" "0.5" "0." "50" "20.9999" "-1.8710256874093909119e+03" ""
"1024" "512" "1.0" "0.5" "50" "16.2249" "-1.2583483611805886540e+03" ""
"1024" "512" "2.0" "1.0" "50" "15.1735" "-5.5326729283126303471e+02" ""
"1024" "512" "5." "2.5" "50" "14.8316" "4.0052168241390143066e+02" ""
"1024" "512" "10." "5." "50" "14.8505" "1.1043195188875711210e+03" ""
