APPROXIMATOR_SEQ_OPTIMIZED	1	0.001322	754.433
APPROXIMATOR_PAR_OPENMP	1	0.001119	753.664
APPROXIMATOR_PAR_OPENMP	2	0.001119	449.26
APPROXIMATOR_PAR_OPENMP	4	0.001119	284.41
APPROXIMATOR_PAR_OPENMP	6	0.001119	223.507

