APPROXIMATOR_SEQ_OPTIMIZED	1	0.001026	2953.1
APPROXIMATOR_PAR_OPENMP	1	0.001187	2959.96
APPROXIMATOR_PAR_OPENMP	2	0.001187	2233.29
APPROXIMATOR_PAR_OPENMP	4	0.001187	1310.2
APPROXIMATOR_PAR_OPENMP	6	0.001187	999.759

