APPROXIMATOR_SEQ_OPTIMIZED	1	0.001465	6620.03
APPROXIMATOR_PAR_OPENMP	1	0.000918	6595.44
APPROXIMATOR_PAR_OPENMP	2	0.000918	4727.98
APPROXIMATOR_PAR_OPENMP	4	0.000918	2967.47
APPROXIMATOR_PAR_OPENMP	6	0.000918	2285.21

