APPROXIMATOR_SEQ_OPTIMIZED	1	0.001069	138.32
APPROXIMATOR_PAR_OPENMP	1	0.001046	138.354
APPROXIMATOR_PAR_OPENMP	2	0.001046	84.0898
APPROXIMATOR_PAR_OPENMP	4	0.001046	51.007
APPROXIMATOR_PAR_OPENMP	6	0.001046	39.3938

