nState	128
t_95	30
t_53	17
t_7	58
t_51	90
t_89	98
t_83	126
t_23	113
t_14	23
t_20	125
t_38	59
t_42	64
t_48	16
t_45	18
t_22	2
t_72	59
t_21	71
t_78	26
t_29	78
t_94	78
t_54	105
t_85	80
t_56	124
t_50	17
t_92	23
t_12	106
t_81	8
t_19	8
t_87	24
t_39	17
t_90	19
t_4	17
t_68	41
t_13	38
t_27	1
t_96	1
t_16	64
t_33	55
t_61	113
t_5	88
t_57	21
t_41	102
t_35	96
t_11	18
t_49	50
t_37	115
t_65	103
t_18	11
t_82	89
t_93	106
t_79	106
t_40	39
t_1	29
t_86	125
t_55	103
t_77	121
t_26	46
t_6	18
t_52	45
t_62	44
t_99	81
t_67	62
t_47	48
t_46	95
t_63	104
t_25	92
t_70	76
t_2	57
t_36	5
t_15	72
t_34	68
t_80	24
t_32	107
t_58	107
t_43	97
t_71	27
t_28	85
t_8	8
t_74	9
t_9	98
t_17	5
t_60	74
t_73	15
t_44	59
t_88	39
t_69	64
t_76	107
t_59	81
t_75	114
t_30	83
t_3	43
t_10	13
t_91	84
t_98	7
t_100	7
t_66	84
t_64	112
t_97	60
t_31	44
t_84	44
t_24	20
