0	1189.82
0	1188.6
0	8.4e-05
1	58.6777
2	58.414
3	58.3309
4	58.4437
5	58.4145
6	58.4416
7	58.6475
8	58.495
9	58.538
10	58.4746
11	58.4069
12	58.4521
13	58.3702
14	58.4075
15	58.409
16	58.3763
17	58.4146
18	58.4064
19	58.3636
20	58.5014
21	58.3853
22	58.4336
23	58.4571
24	58.396
25	58.4775
26	58.5401
27	58.4514
28	58.4277
29	58.42
30	58.4536
31	58.4452
32	58.4957
33	58.5992
34	58.5465
35	58.3842
36	58.491
37	58.4764
38	58.3671
39	58.6281
40	58.3653
41	58.4744
42	58.3316
43	58.4916
44	58.4537
45	58.3947
46	58.3869
47	58.3748
48	58.4264
49	58.4775
50	58.4416
Summary no histories: 51	2922.48
