0	14.1672
0	14.2695
0	3.7e-05
1	0.837214
2	0.837962
3	0.83803
4	0.836311
5	0.837962
6	0.835974
7	0.837386
8	0.835996
9	0.835289
10	0.839854
11	0.838226
12	0.834714
13	0.833699
14	0.846237
15	0.841719
16	0.831934
17	0.843608
18	0.835138
19	0.848269
20	0.837853
21	0.844238
22	0.844227
23	0.833788
24	0.830578
25	0.835034
26	0.833954
27	0.834736
28	0.83096
29	0.829742
30	0.830222
31	0.829634
32	0.832294
33	0.835257
34	0.829055
35	0.832908
36	0.826231
37	0.832263
38	0.831035
39	0.837883
40	0.831238
41	0.830349
42	0.833743
43	0.832859
44	0.830268
45	0.832219
46	0.83451
47	0.83238
48	0.829792
49	0.829051
50	0.830713
Summary no histories: 51	41.7446
